<?xml version="1.0" encoding="UTF-8" standalone="no"?>
<!-- Created with Inkscape (http://www.inkscape.org/) -->

<svg
   width="48.0px"
   height="48.0px"
   viewBox="0 0 48.0 48.0"
   version="1.1"
   id="SVGRoot"
   xmlns="http://www.w3.org/2000/svg"
   xmlns:svg="http://www.w3.org/2000/svg">
  <defs
     id="defs58437">
    <pattern
       patternUnits="userSpaceOnUse"
       width="1.898437"
       height="1.89843"
       patternTransform="translate(84.308594,221.91016)"
       id="pattern20533-9-3">
      <path
         id="path18889-9-3-1"
         style="color:#000000;fill:#000000;-inkscape-stroke:none"
         d="M 0,0 V 0.23437 L 1.664062,1.89843 H 1.898437 V 1.66211 L 0.236328,0 Z M 1.652344,0 1.898437,0.24609 V 0 Z M 0,1.65039 v 0.24804 h 0.248047 z" />
    </pattern>
  </defs>
  <g
     id="layer1">
    <path
       style="display:inline;mix-blend-mode:normal;fill:none;fill-opacity:1;stroke:#000000;stroke-width:1.04997;stroke-linecap:butt;stroke-linejoin:miter;stroke-miterlimit:4;stroke-dasharray:none;stroke-opacity:1"
       d="m 11.006251,7.6444909 c 0.667528,-2.4827812 4.284637,-3.0508677 6.151153,-1.574858 L 38.547963,22.984687 c 3.191135,2.523456 1.331183,7.342022 -2.515015,7.537827 L 10.02769,31.846357 C 7.3105855,31.984777 5.2077885,29.211284 5.8972585,26.646901 Z"
       id="path7252-2-8-4-0-1-37-5-28" />
    <path
       id="path33061-2-2-7-63-2-5-3-7-0-7-0"
       style="display:inline;mix-blend-mode:normal;fill:none;fill-opacity:1;stroke:#000000;stroke-width:1.04997;stroke-linecap:butt;stroke-linejoin:miter;stroke-miterlimit:4;stroke-dasharray:none;stroke-opacity:1"
       d="M 40.426618,10.970242 6.7529265,30.338155 M 40.426618,10.970242 C 41.590195,10.301006 42.695641,8.5483781 42.298751,6.517777 41.916996,4.5646781 40.137956,3.3637413 38.55449,3.2292318 L 25.505016,2.1207427 c -0.160649,-0.012612 -0.317743,-0.018918 -0.468031,-0.018918 l -3e-6,1.261e-4 c -2.254301,0.025224 -3.337493,1.7448075 -3.196167,3.9659479 l 2.34632,37.2085473 c 0.28264,4.476996 -5.311364,5.145476 -7.17444,3.0299 L 6.2910635,34.125199 c -0.973759,-1.10603 -0.953532,-2.970181 0.461875,-3.787359" />
    <path
       id="path33061-2-2-7-63-2-5-3-6-4-9-2-3"
       style="display:inline;mix-blend-mode:normal;fill:#000000;fill-opacity:0.313725;stroke:none;stroke-width:3.15306px;stroke-linecap:butt;stroke-linejoin:miter;stroke-opacity:1"
       d="m 14.567602,3.1605897 c -1.57407,0.025224 -3.142306,0.8314931 -3.559519,2.3832707 L 5.8966915,24.542266 c -0.354246,1.317537 0.03153,2.690347 0.855992,3.694975 L 22.788949,19.012086 22.086889,7.8593718 17.160236,3.9673312 C 16.460288,3.4138119 15.512038,3.1459911 14.567602,3.1605897 Z" />
    <path
       id="path33061-2-2-7-63-9-6-6-1-7-3-6-6-7"
       style="display:inline;mix-blend-mode:normal;fill:#000000;fill-opacity:1;stroke:none;stroke-width:3.15306px;stroke-linecap:butt;stroke-linejoin:miter;stroke-opacity:1"
       d="m 21.839059,3.9643989 0.24783,3.8949729 8.455368,6.6941002 9.884112,-5.6841441 C 41.589942,8.2001228 42.695371,6.4474638 42.298501,4.4168628 41.916757,2.4637639 40.137707,1.262827 38.554241,1.1283491 L 25.503953,0.01806266 C 22.933391,-0.20075958 21.688311,1.5951594 21.839059,3.9643989 Z m 8.703198,10.5890731 -7.753308,4.458614 0.634301,10.050373 12.612233,-0.640449 c 3.846195,-0.195805 5.703725,-5.01434 2.512609,-7.537796 z M 23.42325,29.062459 10.028901,29.746042 c -1.3211005,0.06716 -2.4958985,-0.55806 -3.2762175,-1.508801 -1.415408,0.817178 -1.437196,2.682748 -0.463437,3.788778 L 17.012452,44.205747 c 1.863079,2.115607 7.457046,1.447096 7.174437,-3.029868 z" />
  </g>
</svg>
