<?xml version="1.0" encoding="UTF-8" standalone="no"?>
<!-- Created with Inkscape (http://www.inkscape.org/) -->

<svg
   width="48.0px"
   height="48.0px"
   viewBox="0 0 48.0 48.0"
   version="1.1"
   id="SVGRoot"
   xmlns:xlink="http://www.w3.org/1999/xlink"
   xmlns="http://www.w3.org/2000/svg"
   xmlns:svg="http://www.w3.org/2000/svg">
  <defs
     id="defs58437">
    <pattern
       patternUnits="userSpaceOnUse"
       width="1.898437"
       height="1.89843"
       patternTransform="translate(84.308594,221.91016)"
       id="pattern20533-9-3">
      <path
         id="path18889-9-3-1"
         style="color:#000000;fill:#000000;-inkscape-stroke:none"
         d="M 0,0 V 0.23437 L 1.664062,1.89843 H 1.898437 V 1.66211 L 0.236328,0 Z M 1.652344,0 1.898437,0.24609 V 0 Z M 0,1.65039 v 0.24804 h 0.248047 z" />
    </pattern>
    <linearGradient
       xlink:href="#linearGradient8705"
       id="linearGradient55021"
       x1="32.511318"
       y1="48.017654"
       x2="58.030849"
       y2="48.017654"
       gradientUnits="userSpaceOnUse"
       gradientTransform="matrix(-1.8809124,0,0,1.8809124,109.1519,-66.313854)" />
    <linearGradient
       id="linearGradient8705">
      <stop
         style="stop-color:#aaf53e;stop-opacity:1;"
         offset="0"
         id="stop8701" />
      <stop
         style="stop-color:#22d58b;stop-opacity:1;"
         offset="0.99927717"
         id="stop8703" />
    </linearGradient>
  </defs>
  <g
     id="layer1">
    <path
       id="path27226-9-4-8-7-2-4-5-4-8-6-8-6"
       style="display:inline;mix-blend-mode:normal;fill:#cb4833;fill-opacity:1;stroke:none;stroke-width:1.88453"
       d="M 23.998153,0 C 10.744397,1.429384e-4 1.3190065e-4,10.744407 2.4686828e-7,23.998164 -0.00188052,37.253357 10.742968,47.99985 23.998153,48 37.253357,47.999868 47.998225,37.253365 47.996325,23.998164 47.996193,10.744399 37.251928,1.3353455e-4 23.998153,0 Z" />
    <g
       id="use67901-2-6"
       style="mix-blend-mode:normal"
       transform="matrix(1.8807684,0,0,1.8807684,-443.48014,8.0809489)">
      <path
         id="path93545"
         style="display:inline;mix-blend-mode:normal;fill:#f3f36c;fill-opacity:1;stroke:none;stroke-width:1px;stroke-linecap:butt;stroke-linejoin:miter;stroke-opacity:1"
         d="m 226.58366,1.7277681 c -0.49922,0.0077 -0.99659,0.263718 -1.12891,0.7558601 l -1.62109,6.0253899 c -0.11235,0.4178611 0.01,0.8532531 0.27148,1.171875 l 5.08594,-2.925781 -0.22266,-3.537109 -1.5625,-1.234375 c -0.22199,-0.175543 -0.52273,-0.260482 -0.82226,-0.25586 z"
         transform="translate(19.108193,0.62014217)" />
      <path
         id="path93547"
         style="display:inline;mix-blend-mode:normal;fill:#ffffff;fill-opacity:1;stroke:none;stroke-width:1px;stroke-linecap:butt;stroke-linejoin:miter;stroke-opacity:1"
         d="m 247.99801,2.6028454 0.0786,1.2353 2.68164,2.1230496 3.13477,-1.8027396 c 0.36903,-0.21224 0.71962,-0.7681 0.59375,-1.41211 -0.12107,-0.61943 -0.6853,-1.00031 -1.1875,-1.04296 l -4.13893,-0.35213 c -0.81526,-0.0694 -1.21014,0.50018 -1.16233,1.25159 z m 2.76024,3.3583496 -2.45898,1.41406 0.20117,3.1875 4,-0.20312 c 1.21983,-0.0621 1.80895,-1.59031 0.79688,-2.39063 z m -2.25781,4.60156 -4.24805,0.2168 c -0.41899,0.0213 -0.79158,-0.17699 -1.03906,-0.47852 -0.4489,0.25917 -0.45581,0.85084 -0.14698,1.20162 l 3.40089,3.86283 c 0.59088,0.67097 2.36502,0.45895 2.27539,-0.96093 z" />
    </g>
  </g>
</svg>
