<?xml version="1.0" encoding="UTF-8" standalone="no"?>
<!-- Created with Inkscape (http://www.inkscape.org/) -->

<svg
   width="32.0px"
   height="32.0px"
   viewBox="0 0 32.0 32.0"
   version="1.1"
   id="SVGRoot"
   sodipodi:docname="duotone_purple_32_NEW.svg"
   inkscape:version="1.2.2 (b0a8486541, 2022-12-01)"
   xmlns:inkscape="http://www.inkscape.org/namespaces/inkscape"
   xmlns:sodipodi="http://sodipodi.sourceforge.net/DTD/sodipodi-0.dtd"
   xmlns:xlink="http://www.w3.org/1999/xlink"
   xmlns="http://www.w3.org/2000/svg"
   xmlns:svg="http://www.w3.org/2000/svg">
  <sodipodi:namedview
     id="namedview6853"
     pagecolor="#ffffff"
     bordercolor="#111111"
     borderopacity="1"
     inkscape:showpageshadow="0"
     inkscape:pageopacity="0"
     inkscape:pagecheckerboard="1"
     inkscape:deskcolor="#d1d1d1"
     showgrid="false"
     showguides="false"
     inkscape:zoom="5.8417629"
     inkscape:cx="12.410637"
     inkscape:cy="-2.3965368"
     inkscape:window-width="1366"
     inkscape:window-height="703"
     inkscape:window-x="0"
     inkscape:window-y="0"
     inkscape:window-maximized="1"
     inkscape:current-layer="layer1" />
  <defs
     id="defs8088">
    <linearGradient
       xlink:href="#linearGradient10651"
       id="linearGradient1700"
       gradientUnits="userSpaceOnUse"
       gradientTransform="matrix(2.2243574,0,0,2.2243574,-4.9030034,-1.9982768)"
       x1="1.3894912"
       y1="22.344736"
       x2="15.531096"
       y2="7.7256188" />
    <linearGradient
       id="linearGradient10651">
      <stop
         style="stop-color:#8cc4f1;stop-opacity:1"
         offset="0"
         id="stop10647" />
      <stop
         style="stop-color:#8938c7;stop-opacity:1"
         offset="1"
         id="stop10649" />
    </linearGradient>
  </defs>
  <g
     id="layer1">
    <path
       id="path33061-2-2-7-63-9-6-6-3-6"
       style="display:inline;mix-blend-mode:normal;fill:#8938c7;fill-opacity:1;stroke:none;stroke-width:0.889743;stroke-linecap:butt;stroke-linejoin:miter;stroke-miterlimit:4;stroke-dasharray:none;stroke-opacity:1"
       d="m 14.476754,2.7967259 0.174835,2.7477487 5.964926,4.7224214 6.972849,-4.0099375 C 28.410219,5.7848609 29.190056,4.5484296 28.910076,3.1159212 28.640774,1.7380875 27.385724,0.89087428 26.268652,0.79600544 l -9.20646,-0.78326296 c -1.81343,-0.1543704 -2.691784,1.11257902 -2.585438,2.78398342 z m 6.139761,7.4701701 -5.469651,3.145375 0.447474,7.090139 8.89743,-0.451811 c 2.713339,-0.138133 4.023752,-3.537418 1.772547,-5.317616 z M 15.594338,20.50241 6.1451573,20.984651 C 5.2131737,21.03203 4.3844004,20.590962 3.8339165,19.920252 2.8354025,20.496738 2.8200321,21.812824 3.5069804,22.593085 l 7.5647946,8.592312 c 1.314329,1.492477 5.26065,1.020869 5.06128,-2.137452 z" />
    <path
       id="path33061-2-2-7-63-2-5-3-9-9"
       style="display:inline;mix-blend-mode:normal;fill:#e189b6;fill-opacity:1;stroke:none;stroke-width:0.889743;stroke-linecap:butt;stroke-linejoin:miter;stroke-miterlimit:4;stroke-dasharray:none;stroke-opacity:1"
       d="M 9.3470308,2.2296705 C 8.2365871,2.2474653 7.1302584,2.8162558 6.8359315,3.9109732 L 3.2300479,17.313594 c -0.2499065,0.92947 0.022244,1.897933 0.6038686,2.606658 L 15.146864,13.412271 14.651589,5.5444746 11.176031,2.7987946 C 10.682246,2.4083086 10.013293,2.2193717 9.3470308,2.2296705 Z" />
  </g>
</svg>
