<?xml version="1.0" encoding="UTF-8" standalone="no"?>
<!-- Created with Inkscape (http://www.inkscape.org/) -->

<svg
   width="48.0px"
   height="48.0px"
   viewBox="0 0 48.0 48.0"
   version="1.1"
   id="SVGRoot"
   xmlns:xlink="http://www.w3.org/1999/xlink"
   xmlns="http://www.w3.org/2000/svg"
   xmlns:svg="http://www.w3.org/2000/svg">
  <defs
     id="defs58437">
    <linearGradient
       xlink:href="#linearGradient39046"
       id="linearGradient1712"
       gradientUnits="userSpaceOnUse"
       gradientTransform="matrix(3.1532751,0,0,3.1532751,-5.634299,-2.8327783)"
       x1="1.3894912"
       y1="22.344736"
       x2="15.531096"
       y2="7.7256188" />
    <linearGradient
       id="linearGradient39046">
      <stop
         style="stop-color:#8cf1f0;stop-opacity:1"
         offset="0"
         id="stop39042" />
      <stop
         style="stop-color:#5f8fe2;stop-opacity:1"
         offset="1"
         id="stop39044" />
    </linearGradient>
  </defs>
  <g
     id="use27597"
     style="display:inline"
     transform="matrix(3.1532614,0,0,3.1532614,-68.699414,-2.8327121)">
    <path
       id="path86404"
       style="display:inline;mix-blend-mode:normal;fill:#e189b6;fill-opacity:1;stroke:none;stroke-width:0.4;stroke-linecap:butt;stroke-linejoin:miter;stroke-miterlimit:4;stroke-dasharray:none;stroke-opacity:1"
       d="m 26.406356,1.90075 c -0.499217,0.008 -0.996589,0.26372 -1.128906,0.75586 L 23.656356,8.682 c -0.112346,0.41786 0.01,0.85325 0.271484,1.17187 L 29.013778,6.92809 28.791122,3.39098 27.228622,2.15661 C 27.006633,1.98107 26.705887,1.89613 26.406356,1.90075 Z" />
    <path
       id="path86406"
       style="display:inline;mix-blend-mode:normal;fill:#8938c7;fill-opacity:1;stroke:none;stroke-width:0.4;stroke-linecap:butt;stroke-linejoin:miter;stroke-miterlimit:4;stroke-dasharray:none;stroke-opacity:1"
       d="m 28.712522,2.15568 0.0786,1.2353 2.68164,2.12305 3.134766,-1.80273 c 0.369031,-0.21225 0.719626,-0.76811 0.59375,-1.41211 -0.121073,-0.61944 -0.6853,-1.00032 -1.1875,-1.04297 L 29.874846,0.90409 c -0.815254,-0.0694 -1.210134,0.50019 -1.162324,1.25159 z m 2.76024,3.35835 -2.458984,1.41406 0.201172,3.1875 4,-0.20312 c 1.219831,-0.0621 1.808951,-1.59031 0.796875,-2.39063 z m -2.257812,4.60156 -4.248047,0.2168 c -0.418995,0.0213 -0.791587,-0.17698 -1.039063,-0.47852 -0.4489,0.25917 -0.455811,0.85084 -0.146981,1.20162 l 3.400888,3.86284 c 0.590879,0.67096 2.365028,0.45894 2.27539,-0.96094 z" />
  </g>
  <g
     id="use57550"
     style="display:inline"
     transform="matrix(3.1532614,0,0,3.1532614,120.49628,-570.41976)">
    <path
       style="color:#000000;fill:#000000;stroke-linecap:round;stroke-linejoin:round;-inkscape-stroke:none"
       d="m -33.5996,182.73437 c 0.24234,0.007 0.501376,0.0418 0.724606,0.2187 l 0.6875,0.54493 c 0.07223,0.0574 0.177325,0.0451 0.234375,-0.0274 0.05737,-0.0722 0.04511,-0.1773 -0.02734,-0.23437 l -0.689453,-0.54297 c -0.272194,-0.21436 -0.638014,-0.29092 -0.93751,-0.29092 -0.134141,0 -0.199025,0.32632 0.0078,0.33203 z m 2.839834,1.53125 c -0.04363,0.005 -0.08364,0.0264 -0.111328,0.0605 -0.05738,0.0722 -0.04512,0.17731 0.02734,0.23438 l 0.6875,0.54492 c 0.0722,0.0574 0.177295,0.0451 0.234375,-0.0273 0.05737,-0.0722 0.04511,-0.1773 -0.02734,-0.23437 l -0.6875,-0.54492 c -0.03499,-0.0269 -0.07925,-0.0389 -0.123047,-0.0332 z m 2.03125,1.60547 c -0.04394,0.005 -0.084,0.0277 -0.111328,0.0625 -0.05738,0.0722 -0.04512,0.17731 0.02734,0.23438 l 0.689453,0.54297 c 0.0722,0.0574 0.177295,0.0451 0.234375,-0.0273 0.05605,-0.0719 0.04386,-0.17549 -0.02734,-0.23242 l -0.689453,-0.54492 c -0.03469,-0.0277 -0.07898,-0.0403 -0.123047,-0.0352 z m 2.033204,1.60743 c -0.04394,0.005 -0.084,0.0277 -0.111329,0.0625 -0.05737,0.0722 -0.04511,0.1773 0.02734,0.23437 l 0.6875,0.54297 c 0.0722,0.0574 0.177295,0.0451 0.234375,-0.0273 0.05738,-0.0722 0.04512,-0.17731 -0.02734,-0.23438 l -0.6875,-0.54297 c -0.0347,-0.0276 -0.07899,-0.0403 -0.123046,-0.0351 z m -4.964633,3.18306 -1.648649,0.0827 c -0.09161,0.004 -0.16235,0.0822 -0.158203,0.17383 0.0045,0.0924 0.08341,0.16346 0.175781,0.1582 l 1.648649,-0.0827 c 0.09241,-0.004 0.163467,-0.0834 0.158203,-0.17578 -0.0055,-0.0916 -0.08413,-0.16153 -0.175781,-0.15625 z"
       id="path86410" />
    <path
       style="color:#000000;fill:#000000;-inkscape-stroke:none"
       d="m -30.111328,181.4043 c -0.440771,-0.0374 -0.805916,0.11587 -1.037109,0.38672 -0.231194,0.27084 -0.329728,0.64587 -0.304688,1.04296 l 0.294922,4.66797 -4.996094,2.87305 0.166016,0.28906 4.853515,-2.79101 0.425782,6.76172 c 0.04044,0.64049 -0.311102,0.96322 -0.761719,1.09375 -0.450617,0.13052 -0.987591,0.013 -1.222656,-0.25391 l -3.400391,-3.86328 c -0.12338,-0.14014 -0.185034,-0.33457 -0.169922,-0.51172 0.01511,-0.17715 0.09812,-0.3332 0.275391,-0.43555 L -36.15625,190.375 c -0.27163,0.15682 -0.41634,0.42632 -0.439453,0.69727 -0.02311,0.27094 0.0665,0.54912 0.251953,0.75976 l 3.400391,3.86328 c 0.355813,0.40404 1.002685,0.51623 1.564453,0.35352 0.561768,-0.16272 1.051158,-0.65615 1.001953,-1.43555 l -0.4375,-6.92578 5.505859,-3.16602 c 0.438428,-0.25216 0.814329,-0.86905 0.673828,-1.58789 -0.137289,-0.70239 -0.762889,-1.12889 -1.33789,-1.17773 z m -0.02734,0.33203 L -26,182.08789 c 0.429398,0.0365 0.932253,0.37369 1.037109,0.91016 0.111251,0.56918 -0.212085,1.06204 -0.511718,1.23437 l -5.363282,3.08399 -0.283203,-4.50391 c -0.02072,-0.32857 0.06393,-0.61415 0.226563,-0.80469 0.162637,-0.19053 0.401976,-0.30154 0.755859,-0.27148 z"
       id="path86412" />
    <path
       style="color:#000000;fill:#020202;stroke-linecap:round;-inkscape-stroke:none"
       d="m -33.607422,182.40234 c -0.550549,0.012 -1.12259,0.30137 -1.277344,0.87696 l -1.61914,6.02734 c -0.02895,0.10771 -0.04404,0.21643 -0.04687,0.32422 a 0.1665,0.1665 0 0 0 0.162109,0.16992 0.1665,0.1665 0 0 0 0.169922,-0.16211 c 0.0022,-0.0822 0.01315,-0.16422 0.03516,-0.24609 l 1.621094,-6.02735 c 0.108176,-0.40235 0.521509,-0.62123 0.962891,-0.63086 a 0.1665,0.1665 0 0 0 0.162109,-0.16992 0.1665,0.1665 0 0 0 -0.169922,-0.16211 z m 8.056641,7.28711 a 0.1665,0.1665 0 0 0 -0.22461,0.0723 c -0.185793,0.35689 -0.544846,0.62623 -1.019531,0.65039 l -3.236328,0.16601 a 0.1665,0.1665 0 0 0 -0.158203,0.17383 0.1665,0.1665 0 0 0 0.173828,0.15821 l 3.238281,-0.16602 c 0.593619,-0.0302 1.060756,-0.37651 1.296875,-0.83008 a 0.1665,0.1665 0 0 0 -0.07031,-0.22461 z"
       id="path86414" />
    <circle
       style="display:inline;mix-blend-mode:normal;fill:#000000;fill-opacity:1;stroke:none;stroke-width:0.333;stroke-linecap:round;stroke-linejoin:round;stroke-miterlimit:4;stroke-dasharray:none;stroke-opacity:1"
       id="circle86416"
       cx="-34.624451"
       cy="190.97795"
       r="0.26302564" />
  </g>
</svg>
