<?xml version="1.0" encoding="UTF-8" standalone="no"?>
<!-- Created with Inkscape (http://www.inkscape.org/) -->

<svg
   width="22.0px"
   height="22.0px"
   viewBox="0 0 22.0 22.0"
   version="1.1"
   id="SVGRoot"
   xmlns:xlink="http://www.w3.org/1999/xlink"
   xmlns="http://www.w3.org/2000/svg"
   xmlns:svg="http://www.w3.org/2000/svg">
  <defs
     id="defs6040">
    <linearGradient
       xlink:href="#linearGradient10651"
       id="linearGradient1700"
       gradientUnits="userSpaceOnUse"
       gradientTransform="matrix(1.5292946,0,0,1.5292946,-3.3712755,-1.3738592)"
       x1="1.3894912"
       y1="22.344736"
       x2="15.531096"
       y2="7.7256188" />
    <linearGradient
       id="linearGradient10651">
      <stop
         style="stop-color:#8cc4f1;stop-opacity:1"
         offset="0"
         id="stop10647" />
      <stop
         style="stop-color:#8938c7;stop-opacity:1"
         offset="1"
         id="stop10649" />
    </linearGradient>
  </defs>
  <g
     id="g27438"
     style="display:inline"
     transform="matrix(1.5292453,0,0,1.5292453,-95.125528,-1.373815)">
    <path
       id="path33061-2-2-7-63-2-5-3-6-4-0-2"
       style="display:inline;mix-blend-mode:normal;fill:#ffef28;fill-opacity:1;stroke:none;stroke-width:1px;stroke-linecap:butt;stroke-linejoin:miter;stroke-opacity:1"
       d="m 66.406356,1.90075 c -0.499217,0.008 -0.996589,0.26372 -1.128906,0.75586 L 63.656356,8.682 c -0.112346,0.41786 0.01,0.85325 0.271484,1.17187 L 69.013778,6.92809 68.791122,3.39098 67.228622,2.15661 C 67.006633,1.98106 66.705887,1.89612 66.406356,1.90075 Z" />
    <path
       id="path33061-2-2-7-63-9-6-6-1-7-6-7"
       style="display:inline;mix-blend-mode:normal;fill:#39be76;fill-opacity:1;stroke:none;stroke-width:1px;stroke-linecap:butt;stroke-linejoin:miter;stroke-opacity:1"
       d="m 68.712522,2.15568 0.0786,1.2353 2.68164,2.12305 3.134766,-1.80274 c 0.369031,-0.21224 0.719626,-0.7681 0.59375,-1.41211 -0.121073,-0.61943 -0.6853,-1.00031 -1.1875,-1.04296 L 69.874846,0.90409 c -0.815254,-0.0694 -1.210134,0.50018 -1.162324,1.25159 z m 2.76024,3.35835 -2.458984,1.41406 0.201172,3.1875 4,-0.20312 c 1.219831,-0.0621 1.808951,-1.59031 0.796875,-2.39063 z m -2.257812,4.60156 -4.248047,0.2168 c -0.418995,0.0213 -0.791587,-0.17699 -1.039063,-0.47852 -0.4489,0.25917 -0.455811,0.85084 -0.146981,1.20162 l 3.400888,3.86283 c 0.590879,0.67097 2.365028,0.45895 2.27539,-0.96093 z" />
  </g>
</svg>
